{
  "entrypoint": "index.html",
  "shell": "src/app-shell.html",
  "fragments": [
    "src/dashboard.html",
    "src/datos.html",
    "src/my-cuenta.html",
    "src/my-tarjeta.html",
    "src/my-prestamo.html",
    "src/my-afiliate.html",
    "src/my-sesion.html",
    "src/my-productos.html",
    "src/my-view404.html"
  ],
  "sources": [
    "src/**/*",
    "images/**/*"
  ],
  "extraDependencies": [
    "manifest.json",
    "bower_components/webcomponentsjs/*.js"
  ],
  "lint": {
    "rules": ["polymer-2"]
  },
  "builds": [
    {
      "preset": "es5-bundled"
    },
    {
      "preset": "es6-bundled"
    },
    {
      "preset": "es6-unbundled"
    }
  ]
}
